[
    {
        "id": 1,
        "name": "Clare Hahn",
        "email": "considine.bridgette@example.net",
        "email_verified_at": "2020-12-02T00:00:01.000000Z",
        "created_at": "2020-12-02T00:00:02.000000Z",
        "updated_at": "2020-12-02T00:00:02.000000Z"
    },
    {
        "id": 2,
        "name": "Josephine Schaden Jr.",
        "email": "fay.frieda@example.com",
        "email_verified_at": "2020-12-02T00:00:01.000000Z",
        "created_at": "2020-12-02T00:00:02.000000Z",
        "updated_at": "2020-12-02T00:00:02.000000Z"
    },
    {
        "id": 3,
        "name": "Mark Parker MD",
        "email": "wlebsack@example.org",
        "email_verified_at": "2020-12-02T00:00:01.000000Z",
        "created_at": "2020-12-02T00:00:02.000000Z",
        "updated_at": "2020-12-02T00:00:02.000000Z"
    },
    {
        "id": 4,
        "name": "Madyson Emmerich",
        "email": "bergstrom.ottis@example.net",
        "email_verified_at": "2020-12-02T00:00:01.000000Z",
        "created_at": "2020-12-02T00:00:02.000000Z",
        "updated_at": "2020-12-02T00:00:02.000000Z"
    },
    {
        "id": 5,
        "name": "Willow Hoppe II",
        "email": "clinton.luettgen@example.net",
        "email_verified_at": "2020-12-02T00:00:01.000000Z",
        "created_at": "2020-12-02T00:00:02.000000Z",
        "updated_at": "2020-12-02T00:00:02.000000Z"
    },
    {
        "id": 6,
        "name": "Mrs. Cordie Ledner",
        "email": "kharris@example.com",
        "email_verified_at": "2020-12-02T00:00:01.000000Z",
        "created_at": "2020-12-02T00:00:02.000000Z",
        "updated_at": "2020-12-02T00:00:02.000000Z"
    },
    {
        "id": 7,
        "name": "Eleazar Greenholt",
        "email": "mike10@example.com",
        "email_verified_at": "2020-12-02T00:00:01.000000Z",
        "created_at": "2020-12-02T00:00:02.000000Z",
        "updated_at": "2020-12-02T00:00:02.000000Z"
    },
    {
        "id": 8,
        "name": "Lavern Howe",
        "email": "katelin18@example.org",
        "email_verified_at": "2020-12-02T00:00:02.000000Z",
        "created_at": "2020-12-02T00:00:02.000000Z",
        "updated_at": "2020-12-02T00:00:02.000000Z"
    },
    {
        "id": 9,
        "name": "Dr. Edmond Christiansen III",
        "email": "pheller@example.net",
        "email_verified_at": "2020-12-02T00:00:02.000000Z",
        "created_at": "2020-12-02T00:00:02.000000Z",
        "updated_at": "2020-12-02T00:00:02.000000Z"
    },
    {
        "id": 10,
        "name": "King Gibson",
        "email": "iblanda@example.org",
        "email_verified_at": "2020-12-02T00:00:02.000000Z",
        "created_at": "2020-12-02T00:00:02.000000Z",
        "updated_at": "2020-12-02T00:00:02.000000Z"
    }
]